************ Ping From Switch 1 : 192.168.4.1 ********************

PING 192.168.4.2 (192.168.4.2) 56(84) bytes of data.
64 bytes from 192.168.4.2: icmp_req=1 ttl=64 time=585 ms
64 bytes from 192.168.4.2: icmp_req=2 ttl=64 time=136 ms
64 bytes from 192.168.4.2: icmp_req=3 ttl=64 time=88.9 ms
64 bytes from 192.168.4.2: icmp_req=4 ttl=64 time=88.5 ms
64 bytes from 192.168.4.2: icmp_req=5 ttl=64 time=88.3 ms

--- 192.168.4.2 ping statistics ---
5 packets transmitted, 5 received, 0% packet loss, time 4001ms
rtt min/avg/max/mdev = 88.351/197.494/585.343/194.801 ms
----------------------------------------

PING 192.168.4.3 (192.168.4.3) 56(84) bytes of data.
64 bytes from 192.168.4.3: icmp_req=1 ttl=64 time=320 ms
64 bytes from 192.168.4.3: icmp_req=2 ttl=64 time=97.2 ms
64 bytes from 192.168.4.3: icmp_req=3 ttl=64 time=96.9 ms
64 bytes from 192.168.4.3: icmp_req=4 ttl=64 time=96.9 ms
64 bytes from 192.168.4.3: icmp_req=5 ttl=64 time=96.9 ms

--- 192.168.4.3 ping statistics ---
5 packets transmitted, 5 received, 0% packet loss, time 4003ms
rtt min/avg/max/mdev = 96.933/141.797/320.874/89.538 ms
----------------------------------------

PING 192.168.4.4 (192.168.4.4) 56(84) bytes of data.
64 bytes from 192.168.4.4: icmp_req=1 ttl=63 time=770 ms
64 bytes from 192.168.4.4: icmp_req=2 ttl=63 time=145 ms
64 bytes from 192.168.4.4: icmp_req=3 ttl=63 time=144 ms
64 bytes from 192.168.4.4: icmp_req=4 ttl=63 time=144 ms
64 bytes from 192.168.4.4: icmp_req=5 ttl=63 time=144 ms

--- 192.168.4.4 ping statistics ---
5 packets transmitted, 5 received, 0% packet loss, time 4003ms
rtt min/avg/max/mdev = 144.052/269.900/770.790/250.445 ms
************ Ping From Switch 2 : 192.168.4.2 ********************

PING 192.168.4.1 (192.168.4.1) 56(84) bytes of data.
64 bytes from 192.168.4.1: icmp_req=1 ttl=64 time=422 ms
64 bytes from 192.168.4.1: icmp_req=2 ttl=64 time=89.7 ms
64 bytes from 192.168.4.1: icmp_req=3 ttl=64 time=88.3 ms
64 bytes from 192.168.4.1: icmp_req=4 ttl=64 time=88.1 ms
64 bytes from 192.168.4.1: icmp_req=5 ttl=64 time=88.3 ms

--- 192.168.4.1 ping statistics ---
5 packets transmitted, 5 received, 0% packet loss, time 4000ms
rtt min/avg/max/mdev = 88.130/155.515/422.978/133.733 ms
----------------------------------------

PING 192.168.4.3 (192.168.4.3) 56(84) bytes of data.
64 bytes from 192.168.4.3: icmp_req=1 ttl=63 time=880 ms
64 bytes from 192.168.4.3: icmp_req=2 ttl=63 time=252 ms
64 bytes from 192.168.4.3: icmp_req=3 ttl=63 time=291 ms
64 bytes from 192.168.4.3: icmp_req=4 ttl=63 time=271 ms
64 bytes from 192.168.4.3: icmp_req=5 ttl=63 time=252 ms

--- 192.168.4.3 ping statistics ---
5 packets transmitted, 5 received, 0% packet loss, time 4002ms
rtt min/avg/max/mdev = 252.712/389.836/880.225/245.619 ms
----------------------------------------

PING 192.168.4.4 (192.168.4.4) 56(84) bytes of data.
64 bytes from 192.168.4.4: icmp_req=1 ttl=64 time=254 ms
64 bytes from 192.168.4.4: icmp_req=2 ttl=64 time=64.0 ms
64 bytes from 192.168.4.4: icmp_req=3 ttl=64 time=56.0 ms
64 bytes from 192.168.4.4: icmp_req=4 ttl=64 time=55.9 ms
64 bytes from 192.168.4.4: icmp_req=5 ttl=64 time=55.9 ms

--- 192.168.4.4 ping statistics ---
5 packets transmitted, 5 received, 0% packet loss, time 4005ms
rtt min/avg/max/mdev = 55.970/97.401/254.893/78.808 ms
************ Ping From Host 1 : 192.168.4.3 ********************

PING 192.168.4.1 (192.168.4.1) 56(84) bytes of data.
64 bytes from 192.168.4.1: icmp_req=1 ttl=64 time=218 ms
64 bytes from 192.168.4.1: icmp_req=2 ttl=64 time=96.5 ms
64 bytes from 192.168.4.1: icmp_req=3 ttl=64 time=96.6 ms
64 bytes from 192.168.4.1: icmp_req=4 ttl=64 time=96.6 ms
64 bytes from 192.168.4.1: icmp_req=5 ttl=64 time=96.5 ms

--- 192.168.4.1 ping statistics ---
5 packets transmitted, 5 received, 0% packet loss, time 4002ms
rtt min/avg/max/mdev = 96.553/120.975/218.439/48.733 ms
----------------------------------------

PING 192.168.4.2 (192.168.4.2) 56(84) bytes of data.
64 bytes from 192.168.4.2: icmp_req=1 ttl=64 time=521 ms
64 bytes from 192.168.4.2: icmp_req=2 ttl=64 time=271 ms
From 192.168.4.1: icmp_seq=3 Redirect Host(New nexthop: 192.168.4.2)
64 bytes from 192.168.4.2: icmp_req=3 ttl=64 time=282 ms
64 bytes from 192.168.4.2: icmp_req=4 ttl=64 time=268 ms
64 bytes from 192.168.4.2: icmp_req=5 ttl=64 time=251 ms

--- 192.168.4.2 ping statistics ---
5 packets transmitted, 5 received, 0% packet loss, time 4000ms
rtt min/avg/max/mdev = 251.103/318.956/521.666/101.854 ms
----------------------------------------

PING 192.168.4.4 (192.168.4.4) 56(84) bytes of data.
64 bytes from 192.168.4.4: icmp_req=1 ttl=63 time=640 ms
From 192.168.4.1: icmp_seq=2 Redirect Host(New nexthop: 192.168.4.4)
64 bytes from 192.168.4.4: icmp_req=2 ttl=63 time=326 ms
64 bytes from 192.168.4.4: icmp_req=3 ttl=63 time=321 ms
From 192.168.4.1: icmp_seq=4 Redirect Host(New nexthop: 192.168.4.4)
64 bytes from 192.168.4.4: icmp_req=4 ttl=63 time=339 ms
64 bytes from 192.168.4.4: icmp_req=5 ttl=63 time=335 ms

--- 192.168.4.4 ping statistics ---
5 packets transmitted, 5 received, 0% packet loss, time 3999ms
rtt min/avg/max/mdev = 321.621/392.639/640.636/124.157 ms
************ Ping From Host 2 : 192.168.4.4 ********************

PING 192.168.4.1 (192.168.4.1) 56(84) bytes of data.
64 bytes from 192.168.4.1: icmp_req=1 ttl=64 time=475 ms
64 bytes from 192.168.4.1: icmp_req=2 ttl=64 time=145 ms
From 192.168.4.2: icmp_seq=3 Redirect Host(New nexthop: 192.168.4.1)
64 bytes from 192.168.4.1: icmp_req=3 ttl=64 time=144 ms
64 bytes from 192.168.4.1: icmp_req=4 ttl=64 time=144 ms
64 bytes from 192.168.4.1: icmp_req=5 ttl=64 time=144 ms

--- 192.168.4.1 ping statistics ---
5 packets transmitted, 5 received, 0% packet loss, time 3999ms
rtt min/avg/max/mdev = 144.002/210.765/475.884/132.560 ms
----------------------------------------

PING 192.168.4.2 (192.168.4.2) 56(84) bytes of data.
64 bytes from 192.168.4.2: icmp_req=1 ttl=64 time=285 ms
64 bytes from 192.168.4.2: icmp_req=2 ttl=64 time=56.2 ms
64 bytes from 192.168.4.2: icmp_req=3 ttl=64 time=56.2 ms
64 bytes from 192.168.4.2: icmp_req=4 ttl=64 time=56.0 ms
64 bytes from 192.168.4.2: icmp_req=5 ttl=64 time=55.6 ms

--- 192.168.4.2 ping statistics ---
5 packets transmitted, 5 received, 0% packet loss, time 4004ms
rtt min/avg/max/mdev = 55.692/101.913/285.334/91.711 ms
----------------------------------------

PING 192.168.4.3 (192.168.4.3) 56(84) bytes of data.
64 bytes from 192.168.4.3: icmp_req=1 ttl=63 time=774 ms
From 192.168.4.2: icmp_seq=2 Redirect Host(New nexthop: 192.168.4.3)
64 bytes from 192.168.4.3: icmp_req=2 ttl=63 time=325 ms
From 192.168.4.2: icmp_seq=3 Redirect Host(New nexthop: 192.168.4.3)
64 bytes from 192.168.4.3: icmp_req=3 ttl=63 time=332 ms
From 192.168.4.2: icmp_seq=4 Redirect Host(New nexthop: 192.168.4.3)
64 bytes from 192.168.4.3: icmp_req=4 ttl=63 time=318 ms
From 192.168.4.2: icmp_seq=5 Redirect Host(New nexthop: 192.168.4.3)
64 bytes from 192.168.4.3: icmp_req=5 ttl=63 time=309 ms

--- 192.168.4.3 ping statistics ---
5 packets transmitted, 5 received, 0% packet loss, time 3998ms
rtt min/avg/max/mdev = 309.871/412.320/774.406/181.201 ms
